…
-   **Is diagnosis result associated with area mean?**
-   summarizing 2 + graphing 5

``` r
cancer_subsample <- cancer_subsample %>% 
  mutate(area_level = case_when(area_mean < quantile(area_mean,0.25) ~ "1st quater",
                                area_mean > quantile(area_mean,0.75) ~ "4th quater",
                                (area_mean < quantile(area_mean,0.75)) & (area_mean > quantile(area_mean,0.5)) ~ "3rd quater",
                                TRUE ~ "2nd quater"))
cancer_subsample %>% select(area_mean,area_level)
```

    ## # A tibble: 569 × 2
    ##    area_mean area_level
    ##        <dbl> <chr>     
    ##  1     1001  4th quater
    ##  2     1326  4th quater
    ##  3     1203  4th quater
    ##  4      386. 1st quater
    ##  5     1297  4th quater
    ##  6      477. 2nd quater
    ##  7     1040  4th quater
    ##  8      578. 3rd quater
    ##  9      520. 2nd quater
    ## 10      476. 2nd quater
    ## # … with 559 more rows
…
